%YAML 1.1
%TAG !u! tag:unity3d.com,2011:
--- !u!114 &11400000
MonoBehaviour:
  m_ObjectHideFlags: 0
  m_CorrespondingSourceObject: {fileID: 0}
  m_PrefabInternal: {fileID: 0}
  m_GameObject: {fileID: 0}
  m_Enabled: 1
  m_EditorHideFlags: 0
  m_Script: {fileID: 11500000, guid: 3a9396c92b94b064883de5903a0ec1b2, type: 3}
  m_Name: LastSession
  m_EditorClassIdentifier: 
  editorStates:
  - {fileID: 114214847895700150}
  saveName: Assets\Node Editor\Node_Editor\Resources\Saves\Graph Canvas
  savePath: Assets\Node Editor\Node_Editor\Resources\Saves\Graph Canvas.asset
  livesInScene: 0
  nodes:
  - {fileID: 114768586154700258}
  - {fileID: 114518819768466168}
  - {fileID: 114616617084267194}
  - {fileID: 114131391453923430}
  - {fileID: 114405403625950462}
  - {fileID: 114476013706309210}
  - {fileID: 114418610895299274}
  - {fileID: 114791754034773002}
  groups: []
  rootNode: {fileID: 11412686, guid: c2591c50ff1bb714d8398a7b80ec7cb4, type: 2}
--- !u!114 &114131391453923430
MonoBehaviour:
  m_ObjectHideFlags: 1
  m_CorrespondingSourceObject: {fileID: 0}
  m_PrefabInternal: {fileID: 0}
  m_GameObject: {fileID: 0}
  m_Enabled: 1
  m_EditorHideFlags: 0
  m_Script: {fileID: 11500000, guid: 39f5df92d12f07d45a4fcfb96e1b36d8, type: 3}
  m_Name: Display Node
  m_EditorClassIdentifier: 
  canvas: {fileID: 0}
  position: {x: 1200, y: 50}
  dynamicConnectionPorts: []
  backgroundColor: {r: 1, g: 1, b: 1, a: 1}
  inputKnob: {fileID: 0}
--- !u!114 &114214847895700150
MonoBehaviour:
  m_ObjectHideFlags: 1
  m_CorrespondingSourceObject: {fileID: 0}
  m_PrefabInternal: {fileID: 0}
  m_GameObject: {fileID: 0}
  m_Enabled: 1
  m_EditorHideFlags: 0
  m_Script: {fileID: 11500000, guid: f6ab6487237ff124ea4c2aa5de9ce3fb, type: 3}
  m_Name: MainEditorState
  m_EditorClassIdentifier: 
  canvas: {fileID: 0}
  parentEditor: {fileID: 0}
  selectedNode: {fileID: 0}
  panOffset: {x: -505, y: -227}
  zoom: 1.2
--- !u!114 &114405403625950462
MonoBehaviour:
  m_ObjectHideFlags: 1
  m_CorrespondingSourceObject: {fileID: 0}
  m_PrefabInternal: {fileID: 0}
  m_GameObject: {fileID: 0}
  m_Enabled: 1
  m_EditorHideFlags: 0
  m_Script: {fileID: 11500000, guid: de03bdfc59265fe45ac36abd01b51a31, type: 3}
  m_Name: Flow Node
  m_EditorClassIdentifier: 
  canvas: {fileID: 0}
  position: {x: 900, y: 50}
  dynamicConnectionPorts: []
  backgroundColor: {r: 1, g: 1, b: 1, a: 1}
  flowIn: {fileID: 0}
  flowOut: {fileID: 0}
  inputKnob: {fileID: 0}
  outputKnob: {fileID: 0}
--- !u!114 &114418610895299274
MonoBehaviour:
  m_ObjectHideFlags: 1
  m_CorrespondingSourceObject: {fileID: 0}
  m_PrefabInternal: {fileID: 0}
  m_GameObject: {fileID: 0}
  m_Enabled: 1
  m_EditorHideFlags: 0
  m_Script: {fileID: 11500000, guid: de03bdfc59265fe45ac36abd01b51a31, type: 3}
  m_Name: Flow Node
  m_EditorClassIdentifier: 
  canvas: {fileID: 0}
  position: {x: 300, y: -50}
  dynamicConnectionPorts: []
  backgroundColor: {r: 1, g: 1, b: 1, a: 1}
  flowIn: {fileID: 0}
  flowOut: {fileID: 0}
  inputKnob: {fileID: 0}
  outputKnob: {fileID: 0}
--- !u!114 &114476013706309210
MonoBehaviour:
  m_ObjectHideFlags: 1
  m_CorrespondingSourceObject: {fileID: 0}
  m_PrefabInternal: {fileID: 0}
  m_GameObject: {fileID: 0}
  m_Enabled: 1
  m_EditorHideFlags: 0
  m_Script: {fileID: 11500000, guid: de03bdfc59265fe45ac36abd01b51a31, type: 3}
  m_Name: Flow Node
  m_EditorClassIdentifier: 
  canvas: {fileID: 0}
  position: {x: 900, y: -150}
  dynamicConnectionPorts: []
  backgroundColor: {r: 1, g: 1, b: 1, a: 1}
  flowIn: {fileID: 0}
  flowOut: {fileID: 0}
  inputKnob: {fileID: 0}
  outputKnob: {fileID: 0}
--- !u!114 &114518819768466168
MonoBehaviour:
  m_ObjectHideFlags: 1
  m_CorrespondingSourceObject: {fileID: 0}
  m_PrefabInternal: {fileID: 0}
  m_GameObject: {fileID: 0}
  m_Enabled: 1
  m_EditorHideFlags: 0
  m_Script: {fileID: 11500000, guid: de03bdfc59265fe45ac36abd01b51a31, type: 3}
  m_Name: Flow Node
  m_EditorClassIdentifier: 
  canvas: {fileID: 0}
  position: {x: 300, y: 200}
  dynamicConnectionPorts: []
  backgroundColor: {r: 1, g: 1, b: 1, a: 1}
  flowIn: {fileID: 0}
  flowOut: {fileID: 0}
  inputKnob: {fileID: 0}
  outputKnob: {fileID: 0}
--- !u!114 &114616617084267194
MonoBehaviour:
  m_ObjectHideFlags: 1
  m_CorrespondingSourceObject: {fileID: 0}
  m_PrefabInternal: {fileID: 0}
  m_GameObject: {fileID: 0}
  m_Enabled: 1
  m_EditorHideFlags: 0
  m_Script: {fileID: 11500000, guid: f3dd50b389073b148b5ec10e419dc073, type: 3}
  m_Name: Input Node
  m_EditorClassIdentifier: 
  canvas: {fileID: 0}
  position: {x: -50, y: 250}
  dynamicConnectionPorts: []
  backgroundColor: {r: 1, g: 1, b: 1, a: 1}
  outputKnob: {fileID: 0}
  value: 1
--- !u!114 &114768586154700258
MonoBehaviour:
  m_ObjectHideFlags: 1
  m_CorrespondingSourceObject: {fileID: 0}
  m_PrefabInternal: {fileID: 0}
  m_GameObject: {fileID: 0}
  m_Enabled: 1
  m_EditorHideFlags: 0
  m_Script: {fileID: 11500000, guid: be4620fa9db0beb41b2d5e2bff1656c9, type: 3}
  m_Name: Graph Root Node
  m_EditorClassIdentifier: 
  canvas: {fileID: 0}
  position: {x: 0, y: 0}
  dynamicConnectionPorts: []
  backgroundColor: {r: 1, g: 1, b: 1, a: 1}
  flowChild1: {fileID: 0}
  flowChild2: {fileID: 0}
  flowChild3: {fileID: 0}
--- !u!114 &114791754034773002
MonoBehaviour:
  m_ObjectHideFlags: 1
  m_CorrespondingSourceObject: {fileID: 0}
  m_PrefabInternal: {fileID: 0}
  m_GameObject: {fileID: 0}
  m_Enabled: 1
  m_EditorHideFlags: 0
  m_Script: {fileID: 11500000, guid: de03bdfc59265fe45ac36abd01b51a31, type: 3}
  m_Name: Flow Node
  m_EditorClassIdentifier: 
  canvas: {fileID: 0}
  position: {x: 600, y: 300}
  dynamicConnectionPorts: []
  backgroundColor: {r: 1, g: 1, b: 1, a: 1}
  flowIn: {fileID: 0}
  flowOut: {fileID: 0}
  inputKnob: {fileID: 0}
  outputKnob: {fileID: 0}
